%YAML 1.1
%TAG !u! tag:unity3d.com,2011:
--- !u!687078895 &4343727234628468602
SpriteAtlas:
  m_ObjectHideFlags: 0
  m_CorrespondingSourceObject: {fileID: 0}
  m_PrefabInstance: {fileID: 0}
  m_PrefabAsset: {fileID: 0}
  m_Name: cn_PlateAtlas
  m_EditorData:
    serializedVersion: 2
    textureSettings:
      serializedVersion: 2
      anisoLevel: 1
      compressionQuality: 50
      maxTextureSize: 2048
      textureCompression: 0
      filterMode: 1
      generateMipMaps: 0
      readable: 0
      crunchedCompression: 0
      sRGB: 1
    platformSettings: []
    packingSettings:
      serializedVersion: 2
      padding: 4
      blockOffset: 1
      allowAlphaSplitting: 0
      enableRotation: 0
      enableTightPacking: 0
    variantMultiplier: 1
    packables:
    - {fileID: 2800000, guid: b56301bb81e4a7945960c225f3bcbb50, type: 3}
    - {fileID: 2800000, guid: c1625a7f60f0bb546ae37fe04968ff10, type: 3}
    - {fileID: 2800000, guid: 6c0c1c5452d26bf448a09bd6632d0c8e, type: 3}
    - {fileID: 2800000, guid: 4a1446bec11799f49a3550bd0072642c, type: 3}
    - {fileID: 2800000, guid: a8a07ffb8eae9b44b94f22b8ecfc8265, type: 3}
    - {fileID: 2800000, guid: b825adee900bd2c4cb81a2c3aac02b6d, type: 3}
    - {fileID: 2800000, guid: f73722c51b91e5d4787bbac93f1f7ed6, type: 3}
    - {fileID: 2800000, guid: ef5eb24c7b262a649b279d44f9ea158c, type: 3}
    - {fileID: 2800000, guid: be7d8ffd718597b40b1990da47adb87e, type: 3}
    - {fileID: 2800000, guid: e37b00d48ab928f469f314fddfda93c9, type: 3}
    - {fileID: 2800000, guid: 4c77bdfe7cf1c344bad1a2a9400b1885, type: 3}
    - {fileID: 2800000, guid: bc98d677c46bc4d4e95bfc7da298cc81, type: 3}
    - {fileID: 2800000, guid: 483d0e5c451bcd749b70533899dd5dac, type: 3}
    - {fileID: 2800000, guid: d78da16061b2de6498e7ea94b6653639, type: 3}
    - {fileID: 2800000, guid: 02f88b58d12e1dc42956ba72a56e22f8, type: 3}
    - {fileID: 2800000, guid: 8e67ad2352934b643918e9628e43f5a6, type: 3}
    - {fileID: 2800000, guid: 048b47e7222201340a04f7706f651828, type: 3}
    totalSpriteSurfaceArea: 564584
    bindAsDefault: 1
  m_MasterAtlas: {fileID: 0}
  m_PackedSprites:
  - {fileID: 21300000, guid: d78da16061b2de6498e7ea94b6653639, type: 3}
  - {fileID: 21300000, guid: 8e67ad2352934b643918e9628e43f5a6, type: 3}
  - {fileID: 21300000, guid: 6c0c1c5452d26bf448a09bd6632d0c8e, type: 3}
  - {fileID: 21300000, guid: e37b00d48ab928f469f314fddfda93c9, type: 3}
  - {fileID: 21300000, guid: f73722c51b91e5d4787bbac93f1f7ed6, type: 3}
  - {fileID: 21300000, guid: bc98d677c46bc4d4e95bfc7da298cc81, type: 3}
  - {fileID: 21300000, guid: 048b47e7222201340a04f7706f651828, type: 3}
  - {fileID: 21300000, guid: 02f88b58d12e1dc42956ba72a56e22f8, type: 3}
  - {fileID: 21300000, guid: b56301bb81e4a7945960c225f3bcbb50, type: 3}
  - {fileID: 21300000, guid: a8a07ffb8eae9b44b94f22b8ecfc8265, type: 3}
  - {fileID: 21300000, guid: ef5eb24c7b262a649b279d44f9ea158c, type: 3}
  - {fileID: 21300000, guid: 483d0e5c451bcd749b70533899dd5dac, type: 3}
  - {fileID: 21300000, guid: be7d8ffd718597b40b1990da47adb87e, type: 3}
  - {fileID: 21300000, guid: 4a1446bec11799f49a3550bd0072642c, type: 3}
  - {fileID: 21300000, guid: b825adee900bd2c4cb81a2c3aac02b6d, type: 3}
  - {fileID: 21300000, guid: 4c77bdfe7cf1c344bad1a2a9400b1885, type: 3}
  - {fileID: 21300000, guid: c1625a7f60f0bb546ae37fe04968ff10, type: 3}
  m_PackedSpriteNamesToIndex:
  - cn_plate_7
  - cn_plate_8
  - cn_plate_1_1
  - cn_plate_5
  - cn_plate_3_1
  - cn_plate_6
  - cn_plate_8_1
  - cn_plate_7_1
  - cn_base plate
  - cn_plate_2_1
  - cn_plate_4
  - cn_plate_6_1
  - cn_plate_4_1
  - cn_plate_2
  - cn_plate_3
  - cn_plate_5_1
  - cn_plate_1
  m_Tag: cn_PlateAtlas
  m_IsVariant: 0
